{
  "current_workout": [
    {
      "name": "military press",
      "category": {
        "id": 2,
        "name": "Shoulders",
        "type": "Weight Training"
      },
      "id": 1
    },
    {
      "name": "cycle",
      "category": {
        "id": 7,
        "name": "Cardio",
        "type": "Cardio"
      },
      "id": 2
    }
  ]
}